{"data":[{"datasetId":245,"startTime":"2026-05-05T19:45:00.000Z","endTime":"2026-05-05T20:00:00.000Z","value":5013.1},{"datasetId":245,"startTime":"2026-05-05T19:30:00.000Z","endTime":"2026-05-05T19:45:00.000Z","value":4998.4},{"datasetId":245,"startTime":"2026-05-05T19:15:00.000Z","endTime":"2026-05-05T19:30:00.000Z","value":4983.8},{"datasetId":245,"startTime":"2026-05-05T19:00:00.000Z","endTime":"2026-05-05T19:15:00.000Z","value":4969.3},{"datasetId":245,"startTime":"2026-05-05T18:45:00.000Z","endTime":"2026-05-05T19:00:00.000Z","value":4938.4},{"datasetId":245,"startTime":"2026-05-05T18:30:00.000Z","endTime":"2026-05-05T18:45:00.000Z","value":4929.2},{"datasetId":245,"startTime":"2026-05-05T18:15:00.000Z","endTime":"2026-05-05T18:30:00.000Z","value":4932.5},{"datasetId":245,"startTime":"2026-05-05T18:00:00.000Z","endTime":"2026-05-05T18:15:00.000Z","value":4947.4},{"datasetId":245,"startTime":"2026-05-05T17:45:00.000Z","endTime":"2026-05-05T18:00:00.000Z","value":4951.6},{"datasetId":245,"startTime":"2026-05-05T17:30:00.000Z","endTime":"2026-05-05T17:45:00.000Z","value":4962.6}],"pagination":{"total":159540,"lastPage":15954,"nextPage":2,"prevPage":null,"currentPage":1,"perPage":10,"from":0,"to":10}}
{"data":[{"datasetId":248,"startTime":"2026-05-06T03:45:00.000Z","endTime":"2026-05-06T04:00:00.000Z","value":245},{"datasetId":248,"startTime":"2026-05-06T03:30:00.000Z","endTime":"2026-05-06T03:45:00.000Z","value":200.5},{"datasetId":248,"startTime":"2026-05-06T03:15:00.000Z","endTime":"2026-05-06T03:30:00.000Z","value":155.9},{"datasetId":248,"startTime":"2026-05-06T03:00:00.000Z","endTime":"2026-05-06T03:15:00.000Z","value":111.3},{"datasetId":248,"startTime":"2026-05-06T02:45:00.000Z","endTime":"2026-05-06T03:00:00.000Z","value":37.1},{"datasetId":248,"startTime":"2026-05-06T02:30:00.000Z","endTime":"2026-05-06T02:45:00.000Z","value":24.7},{"datasetId":248,"startTime":"2026-05-06T02:15:00.000Z","endTime":"2026-05-06T02:30:00.000Z","value":12.4},{"datasetId":248,"startTime":"2026-05-06T02:00:00.000Z","endTime":"2026-05-06T02:15:00.000Z","value":0},{"datasetId":248,"startTime":"2026-05-06T01:45:00.000Z","endTime":"2026-05-06T02:00:00.000Z","value":0},{"datasetId":248,"startTime":"2026-05-06T01:30:00.000Z","endTime":"2026-05-06T01:45:00.000Z","value":0}],"pagination":{"total":157678,"lastPage":15768,"nextPage":2,"prevPage":null,"currentPage":1,"perPage":10,"from":0,"to":10}}
{"data":[{"datasetId":191,"startTime":"2026-05-03T03:54:00.000Z","endTime":"2026-05-03T03:57:00.000Z","value":1070.72},{"datasetId":191,"startTime":"2026-05-03T03:51:00.000Z","endTime":"2026-05-03T03:54:00.000Z","value":1065.61},{"datasetId":191,"startTime":"2026-05-03T03:48:00.000Z","endTime":"2026-05-03T03:51:00.000Z","value":1065.5},{"datasetId":191,"startTime":"2026-05-03T03:45:00.000Z","endTime":"2026-05-03T03:48:00.000Z","value":1067.89},{"datasetId":191,"startTime":"2026-05-03T03:42:00.000Z","endTime":"2026-05-03T03:45:00.000Z","value":1067.67},{"datasetId":191,"startTime":"2026-05-03T03:39:00.000Z","endTime":"2026-05-03T03:42:00.000Z","value":1066.67},{"datasetId":191,"startTime":"2026-05-03T03:36:00.000Z","endTime":"2026-05-03T03:39:00.000Z","value":1067},{"datasetId":191,"startTime":"2026-05-03T03:33:00.000Z","endTime":"2026-05-03T03:36:00.000Z","value":1068},{"datasetId":191,"startTime":"2026-05-03T03:30:00.000Z","endTime":"2026-05-03T03:33:00.000Z","value":1065.77},{"datasetId":191,"startTime":"2026-05-03T03:27:00.000Z","endTime":"2026-05-03T03:30:00.000Z","value":1059.56}],"pagination":{"total":2177024,"lastPage":217703,"nextPage":2,"prevPage":null,"currentPage":1,"perPage":10,"from":0,"to":10}}
{"data":[{"datasetId":245,"startTime":"2026-05-06T04:45:00.000Z","endTime":"2026-05-06T05:00:00.000Z","value":2462.1},{"datasetId":245,"startTime":"2026-05-06T04:30:00.000Z","endTime":"2026-05-06T04:45:00.000Z","value":2494.8},{"datasetId":245,"startTime":"2026-05-06T04:15:00.000Z","endTime":"2026-05-06T04:30:00.000Z","value":2527.2},{"datasetId":245,"startTime":"2026-05-06T04:00:00.000Z","endTime":"2026-05-06T04:15:00.000Z","value":2561.4},{"datasetId":245,"startTime":"2026-05-06T03:45:00.000Z","endTime":"2026-05-06T04:00:00.000Z","value":2619},{"datasetId":245,"startTime":"2026-05-06T03:30:00.000Z","endTime":"2026-05-06T03:45:00.000Z","value":2665.2},{"datasetId":245,"startTime":"2026-05-06T03:15:00.000Z","endTime":"2026-05-06T03:30:00.000Z","value":2713.8},{"datasetId":245,"startTime":"2026-05-06T03:00:00.000Z","endTime":"2026-05-06T03:15:00.000Z","value":2765.3},{"datasetId":245,"startTime":"2026-05-06T02:45:00.000Z","endTime":"2026-05-06T03:00:00.000Z","value":2822},{"datasetId":245,"startTime":"2026-05-06T02:30:00.000Z","endTime":"2026-05-06T02:45:00.000Z","value":2870.7}],"pagination":{"total":159576,"lastPage":15958,"nextPage":2,"prevPage":null,"currentPage":1,"perPage":10,"from":0,"to":10}}
{"data":[{"datasetId":248,"startTime":"2026-05-06T04:45:00.000Z","endTime":"2026-05-06T05:00:00.000Z","value":449.7},{"datasetId":248,"startTime":"2026-05-06T04:30:00.000Z","endTime":"2026-05-06T04:45:00.000Z","value":400},{"datasetId":248,"startTime":"2026-05-06T04:15:00.000Z","endTime":"2026-05-06T04:30:00.000Z","value":350.3},{"datasetId":248,"startTime":"2026-05-06T04:00:00.000Z","endTime":"2026-05-06T04:15:00.000Z","value":300.6},{"datasetId":248,"startTime":"2026-05-06T03:45:00.000Z","endTime":"2026-05-06T04:00:00.000Z","value":245},{"datasetId":248,"startTime":"2026-05-06T03:30:00.000Z","endTime":"2026-05-06T03:45:00.000Z","value":200.5},{"datasetId":248,"startTime":"2026-05-06T03:15:00.000Z","endTime":"2026-05-06T03:30:00.000Z","value":155.9},{"datasetId":248,"startTime":"2026-05-06T03:00:00.000Z","endTime":"2026-05-06T03:15:00.000Z","value":111.3},{"datasetId":248,"startTime":"2026-05-06T02:45:00.000Z","endTime":"2026-05-06T03:00:00.000Z","value":37.1},{"datasetId":248,"startTime":"2026-05-06T02:30:00.000Z","endTime":"2026-05-06T02:45:00.000Z","value":24.7}],"pagination":{"total":157682,"lastPage":15769,"nextPage":2,"prevPage":null,"currentPage":1,"perPage":10,"from":0,"to":10}}
{"data":[{"datasetId":191,"startTime":"2026-05-03T04:36:00.000Z","endTime":"2026-05-03T04:39:00.000Z","value":1100.17},{"datasetId":191,"startTime":"2026-05-03T04:33:00.000Z","endTime":"2026-05-03T04:36:00.000Z","value":1098.45},{"datasetId":191,"startTime":"2026-05-03T04:30:00.000Z","endTime":"2026-05-03T04:33:00.000Z","value":1102.39},{"datasetId":191,"startTime":"2026-05-03T04:27:00.000Z","endTime":"2026-05-03T04:30:00.000Z","value":1111.89},{"datasetId":191,"startTime":"2026-05-03T04:24:00.000Z","endTime":"2026-05-03T04:27:00.000Z","value":1116.11},{"datasetId":191,"startTime":"2026-05-03T04:21:00.000Z","endTime":"2026-05-03T04:24:00.000Z","value":1111.27},{"datasetId":191,"startTime":"2026-05-03T04:18:00.000Z","endTime":"2026-05-03T04:21:00.000Z","value":1107.61},{"datasetId":191,"startTime":"2026-05-03T04:15:00.000Z","endTime":"2026-05-03T04:18:00.000Z","value":1107.89},{"datasetId":191,"startTime":"2026-05-03T04:12:00.000Z","endTime":"2026-05-03T04:15:00.000Z","value":1105.72},{"datasetId":191,"startTime":"2026-05-03T04:09:00.000Z","endTime":"2026-05-03T04:12:00.000Z","value":1098.17}],"pagination":{"total":2177038,"lastPage":217704,"nextPage":2,"prevPage":null,"currentPage":1,"perPage":10,"from":0,"to":10}}
{"data":[{"datasetId":245,"startTime":"2026-05-06T06:45:00.000Z","endTime":"2026-05-06T07:00:00.000Z","value":2568.5},{"datasetId":245,"startTime":"2026-05-06T06:30:00.000Z","endTime":"2026-05-06T06:45:00.000Z","value":2523.9},{"datasetId":245,"startTime":"2026-05-06T06:15:00.000Z","endTime":"2026-05-06T06:30:00.000Z","value":2485.9},{"datasetId":245,"startTime":"2026-05-06T06:00:00.000Z","endTime":"2026-05-06T06:15:00.000Z","value":2453.5},{"datasetId":245,"startTime":"2026-05-06T05:45:00.000Z","endTime":"2026-05-06T06:00:00.000Z","value":2429.1},{"datasetId":245,"startTime":"2026-05-06T05:30:00.000Z","endTime":"2026-05-06T05:45:00.000Z","value":2423.8},{"datasetId":245,"startTime":"2026-05-06T05:15:00.000Z","endTime":"2026-05-06T05:30:00.000Z","value":2421.7},{"datasetId":245,"startTime":"2026-05-06T05:00:00.000Z","endTime":"2026-05-06T05:15:00.000Z","value":2423.4},{"datasetId":245,"startTime":"2026-05-06T04:45:00.000Z","endTime":"2026-05-06T05:00:00.000Z","value":2476.2},{"datasetId":245,"startTime":"2026-05-06T04:30:00.000Z","endTime":"2026-05-06T04:45:00.000Z","value":2502.8}],"pagination":{"total":159584,"lastPage":15959,"nextPage":2,"prevPage":null,"currentPage":1,"perPage":10,"from":0,"to":10}}
{"data":[{"datasetId":248,"startTime":"2026-05-06T06:45:00.000Z","endTime":"2026-05-06T07:00:00.000Z","value":891.5},{"datasetId":248,"startTime":"2026-05-06T06:30:00.000Z","endTime":"2026-05-06T06:45:00.000Z","value":841.3},{"datasetId":248,"startTime":"2026-05-06T06:15:00.000Z","endTime":"2026-05-06T06:30:00.000Z","value":791.1},{"datasetId":248,"startTime":"2026-05-06T06:00:00.000Z","endTime":"2026-05-06T06:15:00.000Z","value":740.9},{"datasetId":248,"startTime":"2026-05-06T05:45:00.000Z","endTime":"2026-05-06T06:00:00.000Z","value":677.3},{"datasetId":248,"startTime":"2026-05-06T05:30:00.000Z","endTime":"2026-05-06T05:45:00.000Z","value":623.1},{"datasetId":248,"startTime":"2026-05-06T05:15:00.000Z","endTime":"2026-05-06T05:30:00.000Z","value":568.8},{"datasetId":248,"startTime":"2026-05-06T05:00:00.000Z","endTime":"2026-05-06T05:15:00.000Z","value":514.6},{"datasetId":248,"startTime":"2026-05-06T04:45:00.000Z","endTime":"2026-05-06T05:00:00.000Z","value":460.1},{"datasetId":248,"startTime":"2026-05-06T04:30:00.000Z","endTime":"2026-05-06T04:45:00.000Z","value":408.2}],"pagination":{"total":157690,"lastPage":15769,"nextPage":2,"prevPage":null,"currentPage":1,"perPage":10,"from":0,"to":10}}
{"data":[{"datasetId":191,"startTime":"2026-05-03T06:03:00.000Z","endTime":"2026-05-03T06:06:00.000Z","value":1166.34},{"datasetId":191,"startTime":"2026-05-03T06:00:00.000Z","endTime":"2026-05-03T06:03:00.000Z","value":1182.78},{"datasetId":191,"startTime":"2026-05-03T05:57:00.000Z","endTime":"2026-05-03T06:00:00.000Z","value":1178.11},{"datasetId":191,"startTime":"2026-05-03T05:54:00.000Z","endTime":"2026-05-03T05:57:00.000Z","value":1177.94},{"datasetId":191,"startTime":"2026-05-03T05:51:00.000Z","endTime":"2026-05-03T05:54:00.000Z","value":1175.06},{"datasetId":191,"startTime":"2026-05-03T05:48:00.000Z","endTime":"2026-05-03T05:51:00.000Z","value":1175.33},{"datasetId":191,"startTime":"2026-05-03T05:45:00.000Z","endTime":"2026-05-03T05:48:00.000Z","value":1165.67},{"datasetId":191,"startTime":"2026-05-03T05:42:00.000Z","endTime":"2026-05-03T05:45:00.000Z","value":1170.11},{"datasetId":191,"startTime":"2026-05-03T05:39:00.000Z","endTime":"2026-05-03T05:42:00.000Z","value":1174.11},{"datasetId":191,"startTime":"2026-05-03T05:36:00.000Z","endTime":"2026-05-03T05:39:00.000Z","value":1176}],"pagination":{"total":2177067,"lastPage":217707,"nextPage":2,"prevPage":null,"currentPage":1,"perPage":10,"from":0,"to":10}}
{"data":[{"datasetId":245,"startTime":"2026-05-06T07:45:00.000Z","endTime":"2026-05-06T08:00:00.000Z","value":3537.5},{"datasetId":245,"startTime":"2026-05-06T07:30:00.000Z","endTime":"2026-05-06T07:45:00.000Z","value":3456.7},{"datasetId":245,"startTime":"2026-05-06T07:15:00.000Z","endTime":"2026-05-06T07:30:00.000Z","value":3376.1},{"datasetId":245,"startTime":"2026-05-06T07:00:00.000Z","endTime":"2026-05-06T07:15:00.000Z","value":3295.3},{"datasetId":245,"startTime":"2026-05-06T06:45:00.000Z","endTime":"2026-05-06T07:00:00.000Z","value":3151.5},{"datasetId":245,"startTime":"2026-05-06T06:30:00.000Z","endTime":"2026-05-06T06:45:00.000Z","value":3105.5},{"datasetId":245,"startTime":"2026-05-06T06:15:00.000Z","endTime":"2026-05-06T06:30:00.000Z","value":3075.5},{"datasetId":245,"startTime":"2026-05-06T06:00:00.000Z","endTime":"2026-05-06T06:15:00.000Z","value":3047.2},{"datasetId":245,"startTime":"2026-05-06T05:45:00.000Z","endTime":"2026-05-06T06:00:00.000Z","value":3029.9},{"datasetId":245,"startTime":"2026-05-06T05:30:00.000Z","endTime":"2026-05-06T05:45:00.000Z","value":3023.1}],"pagination":{"total":159588,"lastPage":15959,"nextPage":2,"prevPage":null,"currentPage":1,"perPage":10,"from":0,"to":10}}
